Building DAG of jobs...
MissingInputException in line 38 of /homes/kcduong/Thema_11/dp2020/final_assessment/Snakefile:
Missing input files for rule find_unknowns:
output/ONE/comparison_output/all_distinct_A.csv
